{
  "data": [
    {
      "id": 1,
      "name": "Portrait Photography Session",
      "slug": "portrait-session",
      "description": "Professional portrait photography session",
      "price": 299.99,
      "stock_quantity": 20,
      "is_featured": true,
      "image_url": "https://images.unsplash.com/photo-1544005313-94ddf0286df2",
      "category_id": 1,
      "created_at": "2024-11-10T23:22:57.833415+00:00",
      "updated_at": "2024-11-10T23:22:57.833415+00:00",
      "categories": {
        "id": 1,
        "name": "People",
        "slug": "people",
        "created_at": "2024-11-10T23:22:57.833415+00:00",
        "updated_at": "2024-11-10T23:22:57.833415+00:00"
      },
      "related_products": [
        {
          "id": 2,
          "name": "Wedding Photography Package",
          "slug": "wedding-package",
          "description": "Complete wedding day photography coverage",
          "price": 1499.99,
          "stock_quantity": 10,
          "is_featured": false,
          "image_url": "https://images.unsplash.com/photo-1519741497674-611481863552",
          "category_id": 1,
          "created_at": "2024-11-10T23:22:57.833415+00:00",
          "updated_at": "2024-11-10T23:22:57.833415+00:00",
          "categories": {
            "id": 1,
            "name": "People",
            "slug": "people",
            "created_at": "2024-11-10T23:22:57.833415+00:00",
            "updated_at": "2024-11-10T23:22:57.833415+00:00"
          }
        },
        {
          "id": 3,
          "name": "Family Photo Session",
          "slug": "family-session",
          "description": "Outdoor family photography session",
          "price": 199.99,
          "stock_quantity": 15,
          "is_featured": false,
          "image_url": "https://images.unsplash.com/photo-1511895426328-dc8714191300",
          "category_id": 1,
          "created_at": "2024-11-10T23:22:57.833415+00:00",
          "updated_at": "2024-11-10T23:22:57.833415+00:00",
          "categories": {
            "id": 1,
            "name": "People",
            "slug": "people",
            "created_at": "2024-11-10T23:22:57.833415+00:00",
            "updated_at": "2024-11-10T23:22:57.833415+00:00"
          }
        },
        {
          "id": 4,
          "name": "Mountain Landscape Print",
          "slug": "mountain-print",
          "description": "High-resolution mountain landscape print",
          "price": 79.99,
          "stock_quantity": 50,
          "is_featured": false,
          "image_url": "https://images.unsplash.com/photo-1464822759023-fed622ff2c3b",
          "category_id": 2,
          "created_at": "2024-11-10T23:22:57.833415+00:00",
          "updated_at": "2024-11-10T23:22:57.833415+00:00",
          "categories": {
            "id": 2,
            "name": "Nature",
            "slug": "nature",
            "created_at": "2024-11-10T23:22:57.833415+00:00",
            "updated_at": "2024-11-10T23:22:57.833415+00:00"
          }
        }
      ]
    },
    {
      "id": 2,
      "name": "Wedding Photography Package",
      "slug": "wedding-package",
      "description": "Complete wedding day photography coverage",
      "price": 1499.99,
      "stock_quantity": 10,
      "is_featured": false,
      "image_url": "https://images.unsplash.com/photo-1519741497674-611481863552",
      "category_id": 1,
      "created_at": "2024-11-10T23:22:57.833415+00:00",
      "updated_at": "2024-11-10T23:22:57.833415+00:00",
      "categories": {
        "id": 1,
        "name": "People",
        "slug": "people",
        "created_at": "2024-11-10T23:22:57.833415+00:00",
        "updated_at": "2024-11-10T23:22:57.833415+00:00"
      }
    },
    {
      "id": 3,
      "name": "Family Photo Session",
      "slug": "family-session",
      "description": "Outdoor family photography session",
      "price": 199.99,
      "stock_quantity": 15,
      "is_featured": false,
      "image_url": "https://images.unsplash.com/photo-1511895426328-dc8714191300",
      "category_id": 1,
      "created_at": "2024-11-10T23:22:57.833415+00:00",
      "updated_at": "2024-11-10T23:22:57.833415+00:00",
      "categories": {
        "id": 1,
        "name": "People",
        "slug": "people",
        "created_at": "2024-11-10T23:22:57.833415+00:00",
        "updated_at": "2024-11-10T23:22:57.833415+00:00"
      }
    },
    {
      "id": 4,
      "name": "Mountain Landscape Print",
      "slug": "mountain-print",
      "description": "High-resolution mountain landscape print",
      "price": 79.99,
      "stock_quantity": 50,
      "is_featured": false,
      "image_url": "https://images.unsplash.com/photo-1464822759023-fed622ff2c3b",
      "category_id": 2,
      "created_at": "2024-11-10T23:22:57.833415+00:00",
      "updated_at": "2024-11-10T23:22:57.833415+00:00",
      "categories": {
        "id": 2,
        "name": "Nature",
        "slug": "nature",
        "created_at": "2024-11-10T23:22:57.833415+00:00",
        "updated_at": "2024-11-10T23:22:57.833415+00:00"
      }
    },
    {
      "id": 5,
      "name": "Forest Photography",
      "slug": "forest-photo",
      "description": "Mystical forest scene in autumn",
      "price": 89.99,
      "stock_quantity": 30,
      "is_featured": false,
      "image_url": "https://images.unsplash.com/photo-1448375240586-882707db888b",
      "category_id": 2,
      "created_at": "2024-11-10T23:22:57.833415+00:00",
      "updated_at": "2024-11-10T23:22:57.833415+00:00",
      "categories": {
        "id": 2,
        "name": "Nature",
        "slug": "nature",
        "created_at": "2024-11-10T23:22:57.833415+00:00",
        "updated_at": "2024-11-10T23:22:57.833415+00:00"
      }
    },
    {
      "id": 6,
      "name": "Ocean Sunset Canvas",
      "slug": "ocean-sunset",
      "description": "Large canvas print of ocean sunset",
      "price": 129.99,
      "stock_quantity": 25,
      "is_featured": false,
      "image_url": "https://images.unsplash.com/photo-1518837695005-2083093ee35b",
      "category_id": 2,
      "created_at": "2024-11-10T23:22:57.833415+00:00",
      "updated_at": "2024-11-10T23:22:57.833415+00:00",
      "categories": {
        "id": 2,
        "name": "Nature",
        "slug": "nature",
        "created_at": "2024-11-10T23:22:57.833415+00:00",
        "updated_at": "2024-11-10T23:22:57.833415+00:00"
      }
    }
  ],
  "meta": {
    "total": 21,
    "page": 1,
    "last_page": 4,
    "limit": 6
  }
}